%YAML 1.1
%TAG !u! tag:unity3d.com,2011:
--- !u!1 &2808952010216871972
GameObject:
  m_ObjectHideFlags: 0
  m_CorrespondingSourceObject: {fileID: 0}
  m_PrefabInstance: {fileID: 0}
  m_PrefabAsset: {fileID: 0}
  serializedVersion: 6
  m_Component:
  - component: {fileID: 7680873806317791866}
  m_Layer: 0
  m_Name: 1.5_New
  m_TagString: Untagged
  m_Icon: {fileID: 0}
  m_NavMeshLayer: 0
  m_StaticEditorFlags: 0
  m_IsActive: 1
--- !u!4 &7680873806317791866
Transform:
  m_ObjectHideFlags: 0
  m_CorrespondingSourceObject: {fileID: 0}
  m_PrefabInstance: {fileID: 0}
  m_PrefabAsset: {fileID: 0}
  m_GameObject: {fileID: 2808952010216871972}
  m_LocalRotation: {x: 0, y: 0, z: 0, w: 1}
  m_LocalPosition: {x: 0, y: 0, z: 0}
  m_LocalScale: {x: 10, y: 10, z: 10}
  m_Children:
  - {fileID: 332384810278692866}
  m_Father: {fileID: 0}
  m_RootOrder: 0
  m_LocalEulerAnglesHint: {x: 0, y: 0, z: 0}
--- !u!1001 &332384810278564482
PrefabInstance:
  m_ObjectHideFlags: 0
  serializedVersion: 2
  m_Modification:
    m_TransformParent: {fileID: 7680873806317791866}
    m_Modifications:
    - target: {fileID: 100000, guid: c3918f4b619434e458f4c3daca4c1b61, type: 3}
      propertyPath: m_Name
      value: 1.5_pivot
      objectReference: {fileID: 0}
    - target: {fileID: 400000, guid: c3918f4b619434e458f4c3daca4c1b61, type: 3}
      propertyPath: m_LocalPosition.x
      value: 9.39
      objectReference: {fileID: 0}
    - target: {fileID: 400000, guid: c3918f4b619434e458f4c3daca4c1b61, type: 3}
      propertyPath: m_LocalPosition.y
      value: -7.04
      objectReference: {fileID: 0}
    - target: {fileID: 400000, guid: c3918f4b619434e458f4c3daca4c1b61, type: 3}
      propertyPath: m_LocalPosition.z
      value: -8.57
      objectReference: {fileID: 0}
    - target: {fileID: 400000, guid: c3918f4b619434e458f4c3daca4c1b61, type: 3}
      propertyPath: m_LocalRotation.x
      value: -0
      objectReference: {fileID: 0}
    - target: {fileID: 400000, guid: c3918f4b619434e458f4c3daca4c1b61, type: 3}
      propertyPath: m_LocalRotation.y
      value: -0
      objectReference: {fileID: 0}
    - target: {fileID: 400000, guid: c3918f4b619434e458f4c3daca4c1b61, type: 3}
      propertyPath: m_LocalRotation.z
      value: -0
      objectReference: {fileID: 0}
    - target: {fileID: 400000, guid: c3918f4b619434e458f4c3daca4c1b61, type: 3}
      propertyPath: m_LocalRotation.w
      value: 1
      objectReference: {fileID: 0}
    - target: {fileID: 400000, guid: c3918f4b619434e458f4c3daca4c1b61, type: 3}
      propertyPath: m_RootOrder
      value: 0
      objectReference: {fileID: 0}
    - target: {fileID: 400000, guid: c3918f4b619434e458f4c3daca4c1b61, type: 3}
      propertyPath: m_LocalEulerAnglesHint.x
      value: 0
      objectReference: {fileID: 0}
    - target: {fileID: 400000, guid: c3918f4b619434e458f4c3daca4c1b61, type: 3}
      propertyPath: m_LocalEulerAnglesHint.y
      value: 0
      objectReference: {fileID: 0}
    - target: {fileID: 400000, guid: c3918f4b619434e458f4c3daca4c1b61, type: 3}
      propertyPath: m_LocalEulerAnglesHint.z
      value: 0
      objectReference: {fileID: 0}
    m_RemovedComponents: []
  m_SourcePrefab: {fileID: 100100000, guid: c3918f4b619434e458f4c3daca4c1b61, type: 3}
--- !u!4 &332384810278692866 stripped
Transform:
  m_CorrespondingSourceObject: {fileID: 400000, guid: c3918f4b619434e458f4c3daca4c1b61,
    type: 3}
  m_PrefabInstance: {fileID: 332384810278564482}
  m_PrefabAsset: {fileID: 0}
